{
  "buildFiles": [
    "/home/shuming/did/application/android/RBS-DemoTool/FingerprintLibrary/JNI/Android.mk",
    "/home/shuming/did/application/android/RBS-DemoTool/FingerprintLibrary/JNI/Application.mk"
  ],
  "cleanCommands": [
    "/home/shuming/Android/Sdk/ndk/21.3.6528147/ndk-build NDK_PROJECT_PATH\u003dnull APP_BUILD_SCRIPT\u003d/home/shuming/did/application/android/RBS-DemoTool/FingerprintLibrary/JNI/Android.mk NDK_APPLICATION_MK\u003d/home/shuming/did/application/android/RBS-DemoTool/FingerprintLibrary/JNI/Application.mk APP_ABI\u003darm64-v8a NDK_ALL_ABIS\u003darm64-v8a NDK_DEBUG\u003d1 APP_PLATFORM\u003dandroid-24 NDK_OUT\u003d/home/shuming/did/application/android/rbsFpLib/build/intermediates/ndkBuild/hidl_pDebug/obj NDK_LIBS_OUT\u003d/home/shuming/did/application/android/rbsFpLib/build/intermediates/ndkBuild/hidl_pDebug/lib clean"
  ],
  "buildTargetsCommand": "/home/shuming/Android/Sdk/ndk/21.3.6528147/ndk-build NDK_PROJECT_PATH\u003dnull APP_BUILD_SCRIPT\u003d/home/shuming/did/application/android/RBS-DemoTool/FingerprintLibrary/JNI/Android.mk NDK_APPLICATION_MK\u003d/home/shuming/did/application/android/RBS-DemoTool/FingerprintLibrary/JNI/Application.mk APP_ABI\u003darm64-v8a NDK_ALL_ABIS\u003darm64-v8a NDK_DEBUG\u003d1 APP_PLATFORM\u003dandroid-24 NDK_OUT\u003d/home/shuming/did/application/android/rbsFpLib/build/intermediates/ndkBuild/hidl_pDebug/obj NDK_LIBS_OUT\u003d/home/shuming/did/application/android/rbsFpLib/build/intermediates/ndkBuild/hidl_pDebug/lib {LIST_OF_TARGETS_TO_BUILD}",
  "libraries": {
    "RbsFlow-hidl_pDebug-arm64-v8a": {
      "artifactName": "RbsFlow",
      "buildCommand": "/home/shuming/Android/Sdk/ndk/21.3.6528147/ndk-build NDK_PROJECT_PATH\u003dnull APP_BUILD_SCRIPT\u003d/home/shuming/did/application/android/RBS-DemoTool/FingerprintLibrary/JNI/Android.mk NDK_APPLICATION_MK\u003d/home/shuming/did/application/android/RBS-DemoTool/FingerprintLibrary/JNI/Application.mk APP_ABI\u003darm64-v8a NDK_ALL_ABIS\u003darm64-v8a NDK_DEBUG\u003d1 APP_PLATFORM\u003dandroid-24 NDK_OUT\u003d/home/shuming/did/application/android/rbsFpLib/build/intermediates/ndkBuild/hidl_pDebug/obj NDK_LIBS_OUT\u003d/home/shuming/did/application/android/rbsFpLib/build/intermediates/ndkBuild/hidl_pDebug/lib /home/shuming/did/application/android/rbsFpLib/build/intermediates/ndkBuild/hidl_pDebug/obj/local/arm64-v8a/libRbsFlow.so",
      "abi": "arm64-v8a",
      "output": "/home/shuming/did/application/android/rbsFpLib/build/intermediates/ndkBuild/hidl_pDebug/obj/local/arm64-v8a/libRbsFlow.so",
      "runtimeFiles": []
    },
    "demotooljni-hidl_pDebug-arm64-v8a": {
      "artifactName": "demotooljni",
      "buildCommand": "/home/shuming/Android/Sdk/ndk/21.3.6528147/ndk-build NDK_PROJECT_PATH\u003dnull APP_BUILD_SCRIPT\u003d/home/shuming/did/application/android/RBS-DemoTool/FingerprintLibrary/JNI/Android.mk NDK_APPLICATION_MK\u003d/home/shuming/did/application/android/RBS-DemoTool/FingerprintLibrary/JNI/Application.mk APP_ABI\u003darm64-v8a NDK_ALL_ABIS\u003darm64-v8a NDK_DEBUG\u003d1 APP_PLATFORM\u003dandroid-24 NDK_OUT\u003d/home/shuming/did/application/android/rbsFpLib/build/intermediates/ndkBuild/hidl_pDebug/obj NDK_LIBS_OUT\u003d/home/shuming/did/application/android/rbsFpLib/build/intermediates/ndkBuild/hidl_pDebug/lib /home/shuming/did/application/android/rbsFpLib/build/intermediates/ndkBuild/hidl_pDebug/obj/local/arm64-v8a/libdemotooljni.so",
      "abi": "arm64-v8a",
      "output": "/home/shuming/did/application/android/rbsFpLib/build/intermediates/ndkBuild/hidl_pDebug/obj/local/arm64-v8a/libdemotooljni.so",
      "runtimeFiles": []
    },
    "egis_fp_core-hidl_pDebug-arm64-v8a": {
      "artifactName": "egis_fp_core",
      "buildCommand": "/home/shuming/Android/Sdk/ndk/21.3.6528147/ndk-build NDK_PROJECT_PATH\u003dnull APP_BUILD_SCRIPT\u003d/home/shuming/did/application/android/RBS-DemoTool/FingerprintLibrary/JNI/Android.mk NDK_APPLICATION_MK\u003d/home/shuming/did/application/android/RBS-DemoTool/FingerprintLibrary/JNI/Application.mk APP_ABI\u003darm64-v8a NDK_ALL_ABIS\u003darm64-v8a NDK_DEBUG\u003d1 APP_PLATFORM\u003dandroid-24 NDK_OUT\u003d/home/shuming/did/application/android/rbsFpLib/build/intermediates/ndkBuild/hidl_pDebug/obj NDK_LIBS_OUT\u003d/home/shuming/did/application/android/rbsFpLib/build/intermediates/ndkBuild/hidl_pDebug/lib /home/shuming/did/application/android/rbsFpLib/build/intermediates/ndkBuild/hidl_pDebug/obj/local/arm64-v8a/libegis_fp_core.so",
      "abi": "arm64-v8a",
      "output": "/home/shuming/did/application/android/rbsFpLib/build/intermediates/ndkBuild/hidl_pDebug/obj/local/arm64-v8a/libegis_fp_core.so",
      "runtimeFiles": []
    }
  }
}